Diseño Experimental y análisis de Datos - 3 Intro a Tidyverse
…
── Conflicts ────────────────────────────────────────── tidyverse_conflicts() ──
✖ dplyr::filter() masks stats::filter()
✖ dplyr::lag()    masks stats::lag()

Primero vamos a explorar un set de datos que ya viene incluido en la libreria, y que tiene valores de eficiencia de combustible para diferentes modelos de automoviles

# Asignmamos la tabla mpg a una nueva variable que vamos a llamar
# tabla_mpg
tabla_mpg = mpg

Podemos ver el contenido de la tabla y el tipo de variables escribiendo.

tabla_mpg

# A tibble: 234 × 11
   manufacturer model      displ  year   cyl trans drv     cty   hwy fl    class
   <chr>        <chr>      <dbl> <int> <int> <chr> <chr> <int> <int> <chr> <chr>
 1 audi         a4           1.8  1999     4 auto… f        18    29 p     comp…
 2 audi         a4           1.8  1999     4 manu… f        21    29 p     comp…
 3 audi         a4           2    2008     4 manu… f        20    31 p     comp…
 4 audi         a4           2    2008     4 auto… f        21    30 p     comp…
 5 audi         a4           2.8  1999     6 auto… f        16    26 p     comp…
 6 audi         a4           2.8  1999     6 manu… f        18    26 p     comp…
 7 audi         a4           3.1  2008     6 auto… f        18    27 p     comp…
 8 audi         a4 quattro   1.8  1999     4 manu… 4        18    26 p     comp…
 9 audi         a4 quattro   1.8  1999     4 auto… 4        16    25 p     comp…
10 audi         a4 quattro   2    2008     4 manu… 4        20    28 p     comp…
# … with 224 more rows
…
mutate(): crear nuevas columnas usando la información de otras columnas.

group_by() y summarize(): cálcula estadísticas en datos agrupados.

count(): conteo de datos.

3.2.1 Filtrando por columnas

Una de las primeras cosas que podemos hacer es filtrar la tabla por algún valor en alguna de columna de interés. Para esto ocupamos el comando filter

# En este caso estamos filtrando la tabla_mpg, en donde la columna year sea menor al año 2000
filter(tabla_mpg, year < 2000)

# A tibble: 117 × 11
   manufacturer model      displ  year   cyl trans drv     cty   hwy fl    class
   <chr>        <chr>      <dbl> <int> <int> <chr> <chr> <int> <int> <chr> <chr>
 1 audi         a4           1.8  1999     4 auto… f        18    29 p     comp…
 2 audi         a4           1.8  1999     4 manu… f        21    29 p     comp…
 3 audi         a4           2.8  1999     6 auto… f        16    26 p     comp…
 4 audi         a4           2.8  1999     6 manu… f        18    26 p     comp…
 5 audi         a4 quattro   1.8  1999     4 manu… 4        18    26 p     comp…
 6 audi         a4 quattro   1.8  1999     4 auto… 4        16    25 p     comp…
 7 audi         a4 quattro   2.8  1999     6 auto… 4        15    25 p     comp…
 8 audi         a4 quattro   2.8  1999     6 manu… 4        17    25 p     comp…
 9 audi         a6 quattro   2.8  1999     6 auto… 4        15    24 p     mids…
10 chevrolet    c1500 sub…   5.7  1999     8 auto… r        13    17 r     suv  
# … with 107 more rows

Tambien podemos elegir un rango de años

filter(tabla_mpg, year < 2000 | year > 2007)

# A tibble: 234 × 11
   manufacturer model      displ  year   cyl trans drv     cty   hwy fl    class
   <chr>        <chr>      <dbl> <int> <int> <chr> <chr> <int> <int> <chr> <chr>
 1 audi         a4           1.8  1999     4 auto… f        18    29 p     comp…
 2 audi         a4           1.8  1999     4 manu… f        21    29 p     comp…
 3 audi         a4           2    2008     4 manu… f        20    31 p     comp…
 4 audi         a4           2    2008     4 auto… f        21    30 p     comp…
 5 audi         a4           2.8  1999     6 auto… f        16    26 p     comp…
 6 audi         a4           2.8  1999     6 manu… f        18    26 p     comp…
 7 audi         a4           3.1  2008     6 auto… f        18    27 p     comp…
 8 audi         a4 quattro   1.8  1999     4 manu… 4        18    26 p     comp…
 9 audi         a4 quattro   1.8  1999     4 auto… 4        16    25 p     comp…
10 audi         a4 quattro   2    2008     4 manu… 4        20    28 p     comp…
# … with 224 more rows
…
